Maren Rusk - Text Analysis
…
large difference

is this because it was clinton’s 2nd term/ bush’s first term? or because more happened during bush’s term (9/11)? or was there more overall NYT coverage then?

Have headlines about the supreme court become more frequent over time (between 1996 and 2006)?

Does the average length/number of the words in NYT headlines vary by month? year?

library(RTextTools) 
library(tidyverse)
data(NYTimes)
as_tibble(NYTimes)

# A tibble: 3,104 × 5
   Article_ID Date      Title                                 Subject Topic.Code
        <int> <fct>     <fct>                                 <fct>        <int>
 1      41246 1-Jan-96  Nation's Smaller Jails Struggle To C… Jails …         12
 2      41257 2-Jan-96  FEDERAL IMPASSE SADDLING STATES WITH… Federa…         20
 3      41268 3-Jan-96  Long, Costly Prelude Does Little To … Conten…         20
 4      41279 4-Jan-96  Top Leader of the Bosnian Serbs Now … Bosnia…         19
 5      41290 5-Jan-96  BATTLE OVER THE BUDGET: THE OVERVIEW… Battle…          1
 6      41302 7-Jan-96  South African Democracy Stumbles on … politi…         19
 7      41314 8-Jan-96  Among Economists, Little Fear on Def… econom…          1
 8      41333 10-Jan-96 BATTLE OVER THE BUDGET: THE OVERVIEW… budget…          1
 9      41344 11-Jan-96 High Court Is Cool To Census Change   census…         20
10      41355 12-Jan-96 TURMOIL AT BARNEYS: THE DIFFICULTIES… barney…         15
# ℹ 3,094 more rows
…
